Laboratorio 1
…
Desviacion Estadar

summarise(mundata, sd.pop=sd(pop))

## # A tibble: 1 x 1
##    sd.pop
##     <dbl>
## 1 147554.

Con group_by podemos implementar funciones por subgrupos

por_estado <- group_by(mundata,clave_ent)
summarise(por_estado, media.pop=mean(pop))

## # A tibble: 32 x 2
##    clave_ent media.pop
##        <dbl>     <dbl>
##  1         1   130421.
##  2         2   726974.
##  3         3   160942.
##  4         4    90965.
##  5         5    84703.
##  6         6    78515.
##  7         7    48562.
##  8         8    56739.
##  9         9   563665.
## 10        10    47923.
## # ... with 22 more rows
…
