Laboratorio 1
…
Ejercicio 1

Calculamos el numero total de viviendas en Mxico

Solucin

vivienda %>%
  mutate(obs = 1,
         num = obs*factor) 

## # A tibble: 73,405 x 66
##    folioviv tipo_viv mat_pared mat_techos mat_pisos antiguedad antigua_ne cocina
##    <chr>    <chr>    <chr>     <chr>      <chr>          <dbl> <chr>      <chr> 
##  1 0100013~ 1        8         10         3                 42 " "        1     
##  2 0100013~ 1        8         10         3                 40 " "        1     
##  3 0100013~ 1        8         10         3                 50 " "        1     
##  4 0100013~ 1        8         10         3                 45 " "        1     
##  5 0100013~ 1        8         10         3                 40 " "        1     
##  6 0100026~ 1        8         10         3                  5 " "        1     
##  7 0100026~ 1        8         10         3                 25 " "        1     
##  8 0100026~ 1        8         10         3                 30 " "        1     
##  9 0100026~ 3        8         10         2                  1 " "        2     
## 10 0100027~ 1        8         10         3                 30 " "        1     
## # ... with 73,395 more rows, and 58 more variables: cocina_dor <chr>,
## #   cuart_dorm <dbl>, num_cuarto <dbl>, disp_agua <chr>, dotac_agua <chr>,
## #   excusado <chr>, uso_compar <chr>, sanit_agua <chr>, biodigest <chr>,
## #   bano_comp <dbl>, bano_excus <dbl>, bano_regad <dbl>, drenaje <chr>,
## #   disp_elect <chr>, focos_inca <dbl>, focos_ahor <dbl>, combustible <chr>,
## #   estufa_chi <chr>, eli_basura <chr>, tenencia <chr>, renta <dbl>,
## #   estim_pago <dbl>, pago_viv <dbl>, pago_mesp <chr>, tipo_adqui <chr>, ...
…
Solucin

numero_viviendas <- 
  vivienda %>% 
  mutate(esvivienda = 1,
         esrural = if_else(tam_loc == 4, 1, 0), # Contamos el numero de viv. en localidades con menos de 2.5 k
         totalviviendas = esvivienda*factor,
         totalviviendas_rural = esrural*factor) %>% 
  group_by(estado) %>% 
  summarise(totalviviendas = sum(totalviviendas),
            totalviviendas_rural = sum(totalviviendas_rural)/sum(totalviviendas), 4)

numero_viviendas

## # A tibble: 32 x 4
##    estado               totalviviendas totalviviendas_rural   `4`
##    <chr>                         <dbl>                <dbl> <dbl>
##  1 Aguascalientes               339512              0.216       4
##  2 Baja California             1074429              0.0944      4
##  3 Baja California Sur          255062              0.151       4
##  4 Campeche                     252458              0.268       4
##  5 Chiapas                     1307648              0.487       4
##  6 Chihuahua                   1147242              0.150       4
##  7 Ciudad de Mxico            2601456              0.00564     4
##  8 Coahuila de Zaragoza         840362              0.106       4
##  9 Colima                       228268              0.123       4
## 10 Durango                      487076              0.298       4
## # ... with 22 more rows
…
## [1] "1" "2" "3" "4"

Ejercicio 4

Ingreso trimestral del hogar por tamao de localidad

Solucin

Tenemos ms que un lugar por vivienda

hogar %>% 
  select(folioviv, foliohog)

## # A tibble: 74,647 x 2
##    folioviv   foliohog
##    <chr>      <chr>   
##  1 0100013601 1       
##  2 0100013602 1       
##  3 0100013603 1       
##  4 0100013604 1       
##  5 0100013606 1       
##  6 0100026701 1       
##  7 0100026703 1       
##  8 0100026704 1       
##  9 0100026706 1       
## 10 0100027201 1       
## # ... with 74,637 more rows

por lo tanto tendremos que crear una clave unica:

hogar <- 
  hogar %>% 
  mutate(folioviv_hog = str_c(folioviv, as.character(foliohog))) 

Analizamos el resultado obtenido:

hogar %>% 
  select(folioviv, foliohog, folioviv_hog)

## # A tibble: 74,647 x 3
##    folioviv   foliohog folioviv_hog
##    <chr>      <chr>    <chr>       
##  1 0100013601 1        01000136011 
##  2 0100013602 1        01000136021 
##  3 0100013603 1        01000136031 
##  4 0100013604 1        01000136041 
##  5 0100013606 1        01000136061 
##  6 0100026701 1        01000267011 
##  7 0100026703 1        01000267031 
##  8 0100026704 1        01000267041 
##  9 0100026706 1        01000267061 
## 10 0100027201 1        01000272011 
## # ... with 74,637 more rows
…
